{
	"additionalNodes": [],
	"additionalParameters": {
		"root": {
			"height": 148,
			"width": 262
		}
	},
	"inputs": [ {
		"command": "BETS_AREA",
		"name": "safeArea"
	}, {
		"command": "BETS_UNIT",
		"name": "transporterID"
	}, {
		"command": "BETS_UNIT",
		"name": "unitToRescueID"
	} ],
	"outputs": [],
	"properties": {
		"RCZnIBvJMxV0WyUlzJ41qz9ARs9LPJ3D": {
			"height": 172,
			"title": "reference",
			"width": 285,
			"x": 381,
			"y": -9
		}
	},
	"roles": [ {
		"categories": [ "Common.transports" ],
		"name": "Transports"
	}, {
		"categories": [],
		"name": "Role 1"
	} ],
	"root": {
		"children": [],
		"id": "RCZnIBvJMxV0WyUlzJ41qz9ARs9LPJ3D",
		"nodeType": "reference",
		"parameters": [ {
			"name": "behaviourName",
			"value": "nota_kukas_myai.saveOneUnit"
		} ],
		"referenceInputs": [ {
			"name": "safeArea",
			"value": "safeArea"
		}, {
			"name": "transporterID",
			"value": "transporterID[1]"
		}, {
			"name": "unitToRescueID",
			"value": "unitToRescueID[1]"
		} ],
		"referenceOutputs": []
	}
}